{
  "ranges": {
    "ftg_override": {
      "UU": 0.8,
      "U": 1.2,
      "PP": 2.4,
      "PAP": 2,
      "PA": 1.6,
      "PH": 2.8
    },
    "ftg": {
      "UU": 0.4,
      "U": 0.8,
      "PP": 2,
      "PAP": 1.6,
      "PA": 1.2,
      "PH": 2.4
    },
    "Method2": {
      "UU": 0.6,
      "U": 0.65,
      "PP": 0.8,
      "PAP": 0.75,
      "PA": 0.7,
      "PH": 0.85
    },
    "3m_f_max": {
      "UU": 0.3,
      "U": 0.4,
      "PP": 0.7,
      "PAP": 0.6,
      "PA": 0.5,
      "PH": 0.8
    }
  },
  "threeMstages": [
    {
      "startTime": {
        "hour": 9,
        "minute": 32,
        "second": 0,
        "nano": 0
      },
      "endTime": {
        "hour": 9,
        "minute": 40,
        "second": 0,
        "nano": 0
      },
      "ranges": {
        "UU": {
          "min": 0.1,
          "max": 0.2
        },
        "U": {
          "min": 0.2,
          "max": 0.3
        },
        "PP": {
          "min": 0.5,
          "max": 0.6
        },
        "PAP": {
          "min": 0.4,
          "max": 0.5
        },
        "PA": {
          "min": 0.3,
          "max": 0.4
        },
        "PH": {
          "min": 0.6,
          "max": 0.7
        }
      }
    },
    {
      "startTime": {
        "hour": 9,
        "minute": 40,
        "second": 0,
        "nano": 0
      },
      "endTime": {
        "hour": 10,
        "minute": 0,
        "second": 0,
        "nano": 0
      },
      "ranges": {
        "UU": {
          "min": 0.2,
          "max": 0.3
        },
        "U": {
          "min": 0.3,
          "max": 0.4
        },
        "PP": {
          "min": 0.6,
          "max": 0.7
        },
        "PAP": {
          "min": 0.5,
          "max": 0.6
        },
        "PA": {
          "min": 0.4,
          "max": 0.5
        },
        "PH": {
          "min": 0.7,
          "max": 0.8
        }
      }
    },
    {
      "startTime": {
        "hour": 10,
        "minute": 0,
        "second": 0,
        "nano": 0
      },
      "endTime": {
        "hour": 13,
        "minute": 0,
        "second": 0,
        "nano": 0
      },
      "ranges": {
        "UU": {
          "min": 0.3,
          "max": 0.4
        },
        "U": {
          "min": 0.4,
          "max": 0.5
        },
        "PP": {
          "min": 0.7,
          "max": 0.8
        },
        "PAP": {
          "min": 0.6,
          "max": 0.7
        },
        "PA": {
          "min": 0.5,
          "max": 0.6
        },
        "PH": {
          "min": 0.8,
          "max": 0.9
        }
      }
    },
    {
      "startTime": {
        "hour": 13,
        "minute": 0,
        "second": 0,
        "nano": 0
      },
      "endTime": {
        "hour": 16,
        "minute": 0,
        "second": 0,
        "nano": 0
      },
      "ranges": {
        "UU": {
          "min": 0.3,
          "max": 0.3
        },
        "U": {
          "min": 0.4,
          "max": 0.4
        },
        "PP": {
          "min": 0.7,
          "max": 0.7
        },
        "PAP": {
          "min": 0.6,
          "max": 0.6
        },
        "PA": {
          "min": 0.5,
          "max": 0.5
        },
        "PH": {
          "min": 0.8,
          "max": 0.8
        }
      }
    }
  ],
  "singleDoubleDurations": [
    {
      "startTime": {
        "hour": 9,
        "minute": 30,
        "second": 0,
        "nano": 0
      },
      "endTime": {
        "hour": 10,
        "minute": 0,
        "second": 0,
        "nano": 0
      },
      "ranges": {
        "UU": {
          "min": 2880,
          "max": 2880
        },
        "U": {
          "min": 2760,
          "max": 2760
        },
        "PP": {
          "min": 2400,
          "max": 2400
        },
        "PAP": {
          "min": 2520,
          "max": 2520
        },
        "PA": {
          "min": 2640,
          "max": 2640
        },
        "PH": {
          "min": 2280,
          "max": 2280
        }
      }
    },
    {
      "startTime": {
        "hour": 10,
        "minute": 0,
        "second": 0,
        "nano": 0
      },
      "endTime": {
        "hour": 12,
        "minute": 0,
        "second": 0,
        "nano": 0
      },
      "ranges": {
        "UU": {
          "min": 2880,
          "max": 4320
        },
        "U": {
          "min": 2760,
          "max": 4200
        },
        "PP": {
          "min": 2400,
          "max": 3840
        },
        "PAP": {
          "min": 2520,
          "max": 3960
        },
        "PA": {
          "min": 2640,
          "max": 4080
        },
        "PH": {
          "min": 2280,
          "max": 3720
        }
      }
    },
    {
      "startTime": {
        "hour": 12,
        "minute": 0,
        "second": 0,
        "nano": 0
      },
      "endTime": {
        "hour": 13,
        "minute": 0,
        "second": 0,
        "nano": 0
      },
      "ranges": {
        "UU": {
          "min": 4320,
          "max": 4320
        },
        "U": {
          "min": 4200,
          "max": 4200
        },
        "PP": {
          "min": 3840,
          "max": 3840
        },
        "PAP": {
          "min": 3960,
          "max": 3960
        },
        "PA": {
          "min": 4080,
          "max": 4080
        },
        "PH": {
          "min": 3720,
          "max": 3720
        }
      }
    },
    {
      "startTime": {
        "hour": 13,
        "minute": 0,
        "second": 0,
        "nano": 0
      },
      "endTime": {
        "hour": 16,
        "minute": 0,
        "second": 0,
        "nano": 0
      },
      "ranges": {
        "UU": {
          "min": 4320,
          "max": 4320
        },
        "U": {
          "min": 4200,
          "max": 4200
        },
        "PP": {
          "min": 3840,
          "max": 3840
        },
        "PAP": {
          "min": 3960,
          "max": 3960
        },
        "PA": {
          "min": 4080,
          "max": 4080
        },
        "PH": {
          "min": 3720,
          "max": 3720
        }
      }
    }
  ]
}
